%YAML 1.1
%TAG !u! tag:unity3d.com,2011:
--- !u!114 &11400000
MonoBehaviour:
  m_ObjectHideFlags: 0
  m_PrefabParentObject: {fileID: 0}
  m_PrefabInternal: {fileID: 0}
  m_GameObject: {fileID: 0}
  m_Enabled: 1
  m_EditorHideFlags: 0
  m_Script: {fileID: 11500000, guid: ae0543fe805424df99fe08ce744cbe49, type: 3}
  m_Name: Up vitruvian
  m_EditorClassIdentifier: 
  m_PoseEntries:
  - path: Bones/Hip
    localPosition: {x: -0, y: -1.2, z: 0}
    localRotation: {x: 0, y: 0, z: 0.7071068, w: 0.7071068}
    localScale: {x: 1, y: 1, z: 1}
  - path: Bones/Hip/Torso
    localPosition: {x: 0.55000883, y: 0, z: 0}
    localRotation: {x: 0, y: 0, z: 0, w: 1}
    localScale: {x: 1, y: 1, z: 1}
  - path: Bones/Hip/Torso/Head
    localPosition: {x: 1.9000475, y: 0, z: 0}
    localRotation: {x: 0, y: 0, z: 0, w: 1}
    localScale: {x: 1, y: 1, z: 1}
  - path: Bones/Hip/Torso/Head/Hair Back 1
    localPosition: {x: 1.8103321, y: 0, z: 0}
    localRotation: {x: 0, y: 0, z: -1, w: 0}
    localScale: {x: 1, y: 1, z: 1}
  - path: Bones/Hip/Torso/Head/Hair Back 1/Hair Back 2
    localPosition: {x: 0.99999905, y: 0, z: 0}
    localRotation: {x: 0, y: 0, z: 0, w: 1}
    localScale: {x: 1, y: 1, z: 1}
  - path: Bones/Hip/Torso/Head/Hair Back 1/Hair Back 2/Hair Back 3
    localPosition: {x: 0.9999995, y: 0, z: 0}
    localRotation: {x: 0, y: 0, z: 0, w: 1}
    localScale: {x: 1, y: 1, z: 1}
  - path: Bones/Hip/Torso/L Arm
    localPosition: {x: 1.74, y: 0.58, z: 0}
    localRotation: {x: 0, y: 0, z: 0.88204217, w: 0.4711705}
    localScale: {x: 1, y: 1, z: 1}
  - path: Bones/Hip/Torso/L Arm/L Arm 2
    localPosition: {x: 1.1000005, y: -0.0000004172325, z: 0}
    localRotation: {x: 0, y: 0, z: 0.09167944, w: 0.9957886}
    localScale: {x: 1, y: 1, z: 1}
  - path: Bones/Hip/Torso/R Arm
    localPosition: {x: 1.74, y: -0.58, z: 0}
    localRotation: {x: 0, y: 0, z: -0.90049964, w: 0.4348568}
    localScale: {x: 1, y: 1, z: 1}
  - path: Bones/Hip/Torso/R Arm/R Arm 2
    localPosition: {x: 1.1, y: 0.00000035762787, z: 0}
    localRotation: {x: 0, y: 0, z: 0, w: 1}
    localScale: {x: 1, y: 1, z: 1}
  - path: Bones/Hip/L Leg
    localPosition: {x: 0.27, y: 0.44, z: 0}
    localRotation: {x: 0, y: 0, z: 0.9979569, w: 0.06389181}
    localScale: {x: 1, y: 1, z: 1}
  - path: Bones/Hip/L Leg/L Leg 2
    localPosition: {x: 1.0500002, y: -0.00000008940697, z: 0}
    localRotation: {x: 0, y: 0, z: 0.048641615, w: 0.9988163}
    localScale: {x: 1, y: 1, z: 1}
  - path: Bones/Hip/L Leg/L Leg 2/L Foot
    localPosition: {x: 0.9200006, y: -0.00000020256266, z: 0}
    localRotation: {x: -0, y: -0, z: -0.71782464, w: -0.696224}
    localScale: {x: 1, y: 1, z: 1}
  - path: Bones/Hip/R Leg
    localPosition: {x: 0.27, y: -0.44, z: 0}
    localRotation: {x: 0, y: 0, z: -0.99977535, w: 0.021195568}
    localScale: {x: 1, y: 1, z: 1}
  - path: Bones/Hip/R Leg/R Leg 2
    localPosition: {x: 1.0500002, y: -0.00000008940697, z: 0}
    localRotation: {x: 0, y: 0, z: 0.04501267, w: 0.9989864}
    localScale: {x: 1, y: 1, z: 1}
  - path: Bones/Hip/R Leg/R Leg 2/R Foot
    localPosition: {x: 0.9200006, y: -0.00000020256266, z: 0}
    localRotation: {x: -0, y: -0, z: 0.6587628, w: 0.75235075}
    localScale: {x: 1, y: 1, z: 1}
