%YAML 1.1
%TAG !u! tag:unity3d.com,2011:
--- !u!114 &11400000
MonoBehaviour:
  m_ObjectHideFlags: 0
  m_PrefabParentObject: {fileID: 0}
  m_PrefabInternal: {fileID: 0}
  m_GameObject: {fileID: 0}
  m_Enabled: 1
  m_EditorHideFlags: 0
  m_Script: {fileID: 11500000, guid: 5617054ded9206d4abb3db64d81cad13, type: 3}
  m_Name: OnSetCharacterName
  m_EditorClassIdentifier: 
  dispatchLastStateOnAdd: 0
