%YAML 1.1
%TAG !u! tag:unity3d.com,2011:
--- !u!114 &11400000
MonoBehaviour:
  m_ObjectHideFlags: 0
  m_PrefabParentObject: {fileID: 0}
  m_PrefabInternal: {fileID: 0}
  m_GameObject: {fileID: 0}
  m_Enabled: 1
  m_EditorHideFlags: 0
  m_Script: {fileID: 11500000, guid: 864b07a76117e3747a4eb70c41577de4, type: 3}
  m_Name: Farm Framework Tools
  m_EditorClassIdentifier: 
  autoCharacterLoading:
    gameplaySceneFolderName: Levels
    autoLoadScenes:
    - Core
    setPlayerToCamera: 1
  givePlayerItem:
    item: {fileID: 11400000, guid: 61cfb2a95fce0ca47a720e5c50d5b5f4, type: 2}
    amount: 25
    give: 0
