%YAML 1.1
%TAG !u! tag:unity3d.com,2011:
--- !u!114 &11400000
MonoBehaviour:
  m_ObjectHideFlags: 0
  m_PrefabParentObject: {fileID: 0}
  m_PrefabInternal: {fileID: 0}
  m_GameObject: {fileID: 0}
  m_Enabled: 1
  m_EditorHideFlags: 0
  m_Script: {fileID: 11500000, guid: 995e01d47cbbb2b4aad2d52bb844a6b3, type: 3}
  m_Name: Item_Tool_Axe
  m_EditorClassIdentifier: 
  guid: 158f49c6-6c0b-4d80-8791-570763e8888b
  icon: {fileID: 21300002, guid: f7d919c91241eba4ca26f3cf02893f89, type: 3}
  itemName: Axe
  description: Used to cut wood
  canStack: 0
  hasSlot: 1
  hasEnergy: 0
  energyStartValue:
    min: 0
    max: 0
    current: 0
  isRemoveable: 0
  action: {fileID: 0}
