%YAML 1.1
%TAG !u! tag:unity3d.com,2011:
--- !u!114 &11400000
MonoBehaviour:
  m_ObjectHideFlags: 0
  m_PrefabParentObject: {fileID: 0}
  m_PrefabInternal: {fileID: 0}
  m_GameObject: {fileID: 0}
  m_Enabled: 1
  m_EditorHideFlags: 0
  m_Script: {fileID: 11500000, guid: a9791836a20056d4b8f7a5853fcc246e, type: 3}
  m_Name: Saveable Prefab Manager
  m_EditorClassIdentifier: 
  instantiateReference: {fileID: 0}
