%YAML 1.1
%TAG !u! tag:unity3d.com,2011:
--- !u!114 &11400000
MonoBehaviour:
  m_ObjectHideFlags: 0
  m_PrefabParentObject: {fileID: 0}
  m_PrefabInternal: {fileID: 0}
  m_GameObject: {fileID: 0}
  m_Enabled: 1
  m_EditorHideFlags: 0
  m_Script: {fileID: 11500000, guid: 995e01d47cbbb2b4aad2d52bb844a6b3, type: 3}
  m_Name: Item_Misc_Leafs
  m_EditorClassIdentifier: 
  guid: 4a8199f4-5de2-48a8-99a2-9f15d955bd1c
  icon: {fileID: 21300002, guid: f7f130d2f575f0243a5f926d6c0cdd48, type: 3}
  itemName: Leafs
  description: Leaves from a plant
  canStack: 1
  hasSlot: 1
  hasEnergy: 0
  energyStartValue:
    min: 0
    max: 0
    current: 0
  isRemoveable: 1
  action: {fileID: 0}
